void checkGib(entity p)
{
	if(p.enemy.super_damage_finished)
		return;

	if(p.enemy.weapon == IT_LIGHTNING)
	{
		markCheevo(p.enemy, ACHV_SHAFT);
		return;
	}


	if((p.dmg_inflictor.classname == "grenade") || (p.dmg_inflictor.classname == "missile"))
	{
		markCheevo(p.enemy, ACHV_GIB);
		return;
	}

	markCheevo(p.enemy, ACHV_NOQUAD_GIB);
}