void checkMapend(entity p)
{
	if(p.firedOnce == FALSE)
		markCheevo(p, ACHV_URBANCOWBOY);

	if(killed_monsters == 0)
		markCheevo(p, ACHV_SIR_ROBIN);

	if(p.takenDamage == FALSE)
		markCheevo(p, ACHV_ACCOUNTANT);

	if(isBonusLevel(nextmap))
		markCheevo(p, ACHV_CHEVRON);
}
