void checkPowerups(entity p)
{
	if(p.super_damage_finished)
	{
		if(p.items & IT_LIGHTNING)
			markCheevo(p, ACHV_SHIT);

		if(p.invincible_time > time)
			markCheevo(p, ACHV_NINES);
	}

	if(p.radsuit_finished)
		markCheevo(p, ACHV_MIB);
}